

 NAS Parallel Benchmarks 3.4 -- FT Benchmark

 No input file inputft.data. Using compiled defaults
 Size                :  512x 512x 512  (class C)
 Iterations          :             20
 Number of processes :              8
 Processor array     :         1x   8
 Layout type         :             1D

 Initialization time =      3.6263

[PI-INFO] Init time,2,7.557381
[PI-INFO] Init time,1,7.587591
[PI-INFO] Init time,4,7.589451
[PI-INFO] Init time,3,7.596308
[PI-INFO] Init time,5,7.612032
[PI-INFO] Init time,0,7.613046
[PI-INFO] Init time,6,7.619149
[PI-INFO] Init time,7,7.625430
[PI-INFO] Paramount Iteration,7,1,10.646742,3.021312
[RU-INFO] Resources Stats,7,1,5.858991,4.371247,930388,0,0,0,3601,2,0,280,0,0,0,0,2166,640
[NT-INFO] Network Stats,7,1,ens4,31995757359,1367572,0,0,0,0,0,0,31631330400,1187274,0,0,0,0,0,0
[NT-INFO] Network Stats,7,1,lo,38591,457,0,0,0,0,0,0,38591,457,0,0,0,0,0,0
[PI-INFO] Paramount Iteration,5,1,10.667779,3.055747
[RU-INFO] Resources Stats,5,1,5.792994,4.465682,930100,0,0,0,3590,2,0,280,0,0,0,0,2146,619
[NT-INFO] Network Stats,5,1,ens4,40628863087,1674450,0,0,0,0,0,0,40103212467,1577172,0,0,0,0,0,0
[NT-INFO] Network Stats,5,1,lo,39502,473,0,0,0,0,0,0,39502,473,0,0,0,0,0,0
[PI-INFO] Paramount Iteration,6,1,10.674680,3.055531
[RU-INFO] Resources Stats,6,1,6.214300,4.052283,930064,0,0,0,3579,2,0,280,0,0,0,0,2174,672
[NT-INFO] Network Stats,6,1,ens4,31853668400,1358976,0,0,0,0,0,0,31642435951,1166037,0,0,0,0,0,0
[NT-INFO] Network Stats,6,1,lo,38798,459,0,0,0,0,0,0,38798,459,0,0,0,0,0,0
[PI-INFO] Paramount Iteration,3,1,10.693886,3.097578
[RU-INFO] Resources Stats,3,1,6.333114,3.959197,930044,0,0,0,3606,2,0,280,0,0,0,0,2080,616
[NT-INFO] Network Stats,3,1,ens4,42100010185,1788647,0,0,0,0,0,0,41917877114,1540472,0,0,0,0,0,0
[PI-INFO] Paramount Iteration,2,1,10.696993,3.139612
[NT-INFO] Network Stats,3,1,lo,39822,470,0,0,0,0,0,0,39822,470,0,0,0,0,0,0
[RU-INFO] Resources Stats,2,1,5.810967,4.478287,930068,0,0,0,3582,2,0,280,0,0,0,0,2223,657
[NT-INFO] Network Stats,2,1,ens4,42447550340,1873026,0,0,0,0,0,0,41875291954,1550628,0,0,0,0,0,0
[NT-INFO] Network Stats,2,1,lo,39848,467,0,0,0,0,0,0,39848,467,0,0,0,0,0,0
[PI-INFO] Paramount Iteration,4,1,10.706732,3.117281
[RU-INFO] Resources Stats,4,1,6.123520,4.177129,930116,0,0,0,3589,2,0,280,0,0,0,0,2165,632
[NT-INFO] Network Stats,4,1,lo,39005,461,0,0,0,0,0,0,39005,461,0,0,0,0,0,0
[NT-INFO] Network Stats,4,1,ens4,40547083005,1787275,0,0,0,0,0,0,40109160301,1479563,0,0,0,0,0,0
 T =    1     Checksum =    5.195078707457D+02    5.149019699238D+02
[PI-INFO] Paramount Iteration,0,1,10.715031,3.101985
[RU-INFO] Resources Stats,0,1,5.819664,4.482822,930348,0,0,0,3613,3,0,288,8,0,0,0,2171,764
[NT-INFO] Network Stats,0,1,ens4,33792094573,1592857,0,0,0,0,0,0,34931003045,1525616,0,0,0,0,0,0
[NT-INFO] Network Stats,0,1,lo,37794,434,0,0,0,0,0,0,37794,434,0,0,0,0,0,0
[PI-INFO] Paramount Iteration,1,1,10.714481,3.126890
[RU-INFO] Resources Stats,1,1,6.228812,4.080532,930252,0,0,0,3609,2,0,280,0,0,0,0,2090,638
[NT-INFO] Network Stats,1,1,ens4,33697763568,1547841,0,0,0,0,0,0,33410736271,1187545,0,0,0,0,0,0
[NT-INFO] Network Stats,1,1,lo,40841,481,0,0,0,0,0,0,40841,481,0,0,0,0,0,0
[PI-INFO] Paramount Iteration,7,2,13.843861,3.197119
[RU-INFO] Resources Stats,7,2,7.615522,5.804587,930388,0,0,0,3601,2,0,280,0,0,0,0,2166,840
[NT-INFO] Network Stats,7,2,ens4,32231378569,1378769,0,0,0,0,0,0,31866848808,1196817,0,0,0,0,0,0
[NT-INFO] Network Stats,7,2,lo,38591,457,0,0,0,0,0,0,38591,457,0,0,0,0,0,0
[PI-INFO] Paramount Iteration,5,2,13.866214,3.198435
[RU-INFO] Resources Stats,5,2,7.518447,5.934774,930100,0,0,0,3590,2,0,280,0,0,0,0,2146,805
[NT-INFO] Network Stats,5,2,ens4,40864509049,1686023,0,0,0,0,0,0,40338708647,1586465,0,0,0,0,0,0
[NT-INFO] Network Stats,5,2,lo,39502,473,0,0,0,0,0,0,39502,473,0,0,0,0,0,0
[PI-INFO] Paramount Iteration,1,2,13.883627,3.169146
[RU-INFO] Resources Stats,1,2,8.037632,5.437104,930252,0,0,0,3609,2,0,280,0,0,0,0,2090,814
[NT-INFO] Network Stats,1,2,ens4,33933417120,1559529,0,0,0,0,0,0,33646231065,1196817,0,0,0,0,0,0
[NT-INFO] Network Stats,1,2,lo,40841,481,0,0,0,0,0,0,40841,481,0,0,0,0,0,0
[PI-INFO] Paramount Iteration,3,2,13.885644,3.191758
[RU-INFO] Resources Stats,3,2,8.395234,5.084381,930044,0,0,0,3609,2,0,280,0,0,0,0,2080,798
[NT-INFO] Network Stats,3,2,ens4,42335648689,1800107,0,0,0,0,0,0,42153400882,1550183,0,0,0,0,0,0
[PI-INFO] Paramount Iteration,2,2,13.888791,3.191798
[NT-INFO] Network Stats,3,2,lo,39822,470,0,0,0,0,0,0,39822,470,0,0,0,0,0,0
[RU-INFO] Resources Stats,2,2,7.619140,5.858414,930068,0,0,0,3582,2,0,280,0,0,0,0,2223,839
[NT-INFO] Network Stats,2,2,ens4,42683211810,1884832,0,0,0,0,0,0,42110814864,1559942,0,0,0,0,0,0
[NT-INFO] Network Stats,2,2,lo,39848,467,0,0,0,0,0,0,39848,467,0,0,0,0,0,0
[PI-INFO] Paramount Iteration,6,2,13.903586,3.228906
[RU-INFO] Resources Stats,6,2,8.152377,5.339008,930064,0,0,0,3579,2,0,280,0,0,0,0,2174,868
 T =    2     Checksum =    5.155422171134D+02    5.127578201997D+02
[PI-INFO] Paramount Iteration,4,2,13.904128,3.197396
[NT-INFO] Network Stats,6,2,ens4,32089324630,1370704,0,0,0,0,0,0,31877929689,1175293,0,0,0,0,0,0
[NT-INFO] Network Stats,6,2,lo,38798,459,0,0,0,0,0,0,38798,459,0,0,0,0,0,0
[RU-INFO] Resources Stats,4,2,8.030447,5.464387,930116,0,0,0,3589,2,0,280,0,0,0,0,2165,825
[NT-INFO] Network Stats,4,2,lo,39005,461,0,0,0,0,0,0,39005,461,0,0,0,0,0,0
[NT-INFO] Network Stats,4,2,ens4,40782769567,1799462,0,0,0,0,0,0,40344677363,1489171,0,0,0,0,0,0
[PI-INFO] Paramount Iteration,0,2,13.904658,3.189627
[RU-INFO] Resources Stats,0,2,7.616171,5.871215,930348,0,0,0,3613,3,0,288,8,0,0,0,2171,977
[NT-INFO] Network Stats,0,2,ens4,34027770019,1604795,0,0,0,0,0,0,35166518657,1535214,0,0,0,0,0,0
[NT-INFO] Network Stats,0,2,lo,37794,434,0,0,0,0,0,0,37794,434,0,0,0,0,0,0
[PI-INFO] Paramount Iteration,7,3,17.030262,3.186401
[RU-INFO] Resources Stats,7,3,9.433302,7.160404,930388,0,0,0,3601,2,0,280,0,0,0,0,2166,1038
[NT-INFO] Network Stats,7,3,ens4,32467050185,1390532,0,0,0,0,0,0,32102400260,1206658,0,0,0,0,0,0
[NT-INFO] Network Stats,7,3,lo,38591,457,0,0,0,0,0,0,38591,457,0,0,0,0,0,0
[PI-INFO] Paramount Iteration,5,3,17.043200,3.176986
[RU-INFO] Resources Stats,5,3,9.310145,7.314543,930100,0,0,0,3593,2,0,280,0,0,0,0,2146,995
[NT-INFO] Network Stats,5,3,ens4,41100184057,1697752,0,0,0,0,0,0,40574197869,1595647,0,0,0,0,0,0
[NT-INFO] Network Stats,5,3,lo,39502,473,0,0,0,0,0,0,39502,473,0,0,0,0,0,0
[PI-INFO] Paramount Iteration,3,3,17.047910,3.162266
[PI-INFO] Paramount Iteration,2,3,17.050993,3.162202
[RU-INFO] Resources Stats,3,3,10.340397,6.294677,930044,0,0,0,3609,2,0,280,0,0,0,0,2080,1024
[RU-INFO] Resources Stats,2,3,9.309395,7.321097,930068,0,0,0,3582,2,0,280,0,0,0,0,2223,1242
[NT-INFO] Network Stats,3,3,ens4,42571319515,1811730,0,0,0,0,0,0,42388921760,1559845,0,0,0,0,0,0
[NT-INFO] Network Stats,2,3,ens4,42918897340,1896804,0,0,0,0,0,0,42346384104,1569781,0,0,0,0,0,0
[NT-INFO] Network Stats,3,3,lo,39822,470,0,0,0,0,0,0,39822,470,0,0,0,0,0,0
[NT-INFO] Network Stats,2,3,lo,39848,467,0,0,0,0,0,0,39848,467,0,0,0,0,0,0
[PI-INFO] Paramount Iteration,6,3,17.052439,3.148853
[RU-INFO] Resources Stats,6,3,10.094289,6.533714,930064,0,0,0,3579,2,0,280,0,0,0,0,2174,1226
[NT-INFO] Network Stats,6,3,ens4,32324981568,1382244,0,0,0,0,0,0,32113420213,1184494,0,0,0,0,0,0
[NT-INFO] Network Stats,6,3,lo,38798,459,0,0,0,0,0,0,38798,459,0,0,0,0,0,0
[PI-INFO] Paramount Iteration,1,3,17.079860,3.196233
[RU-INFO] Resources Stats,1,3,10.006210,6.653469,930252,0,0,0,3609,2,0,280,0,0,0,0,2090,1225
[NT-INFO] Network Stats,1,3,ens4,34169102704,1571333,0,0,0,0,0,0,33881730403,1206153,0,0,0,0,0,0
[NT-INFO] Network Stats,1,3,lo,40841,481,0,0,0,0,0,0,40841,481,0,0,0,0,0,0
 T =    3     Checksum =    5.144678022222D+02    5.122251847514D+02
[PI-INFO] Paramount Iteration,4,3,17.089654,3.185526
[RU-INFO] Resources Stats,4,3,9.826772,6.848720,930116,0,0,0,3590,2,0,280,0,0,0,0,2165,1021
[NT-INFO] Network Stats,4,3,lo,39005,461,0,0,0,0,0,0,39005,461,0,0,0,0,0,0
[NT-INFO] Network Stats,4,3,ens4,41018471489,1811683,0,0,0,0,0,0,40580192967,1498752,0,0,0,0,0,0
[PI-INFO] Paramount Iteration,0,3,17.089936,3.185278
[RU-INFO] Resources Stats,0,3,9.349860,7.312583,930348,0,0,0,3613,3,0,288,8,0,0,0,2171,1378
[NT-INFO] Network Stats,0,3,ens4,34263446051,1616563,0,0,0,0,0,0,35402023759,1544645,0,0,0,0,0,0
[NT-INFO] Network Stats,0,3,lo,37794,434,0,0,0,0,0,0,37794,434,0,0,0,0,0,0
[PI-INFO] Paramount Iteration,5,4,20.103880,3.060680
[RU-INFO] Resources Stats,5,4,11.058305,8.622678,930100,0,0,0,3594,2,0,280,0,0,0,0,2146,1194
[NT-INFO] Network Stats,5,4,ens4,41335867573,1709894,0,0,0,0,0,0,40809710519,1605189,0,0,0,0,0,0
[NT-INFO] Network Stats,5,4,lo,39502,473,0,0,0,0,0,0,39502,473,0,0,0,0,0,0
[PI-INFO] Paramount Iteration,7,4,20.114751,3.084489
[RU-INFO] Resources Stats,7,4,11.211825,8.458960,930388,0,0,0,3601,2,0,280,0,0,0,0,2166,1235
[NT-INFO] Network Stats,7,4,ens4,32702699261,1402152,0,0,0,0,0,0,32337953827,1216456,0,0,0,0,0,0
[NT-INFO] Network Stats,7,4,lo,38591,457,0,0,0,0,0,0,38591,457,0,0,0,0,0,0
[PI-INFO] Paramount Iteration,3,4,20.122664,3.074754
[RU-INFO] Resources Stats,3,4,12.295244,7.409955,930044,0,0,0,3612,2,0,280,0,0,0,0,2080,1217
[NT-INFO] Network Stats,3,4,ens4,42806965111,1823294,0,0,0,0,0,0,42624530296,1569347,0,0,0,0,0,0
[NT-INFO] Network Stats,3,4,lo,39822,470,0,0,0,0,0,0,39822,470,0,0,0,0,0,0
[PI-INFO] Paramount Iteration,2,4,20.125850,3.074857
[RU-INFO] Resources Stats,2,4,11.098686,8.602982,930068,0,0,0,3583,2,0,280,0,0,0,0,2223,1431
[NT-INFO] Network Stats,2,4,ens4,43154554032,1908539,0,0,0,0,0,0,42581903649,1579428,0,0,0,0,0,0
[NT-INFO] Network Stats,2,4,lo,39848,467,0,0,0,0,0,0,39848,467,0,0,0,0,0,0
[PI-INFO] Paramount Iteration,6,4,20.139713,3.087274
[RU-INFO] Resources Stats,6,4,11.903235,7.807627,930064,0,0,0,3579,2,0,280,0,0,0,0,2174,1406
[PI-INFO] Paramount Iteration,4,4,20.140251,3.050597
[NT-INFO] Network Stats,6,4,ens4,32560616636,1393651,0,0,0,0,0,0,32348905793,1193626,0,0,0,0,0,0
[RU-INFO] Resources Stats,4,4,11.611819,8.110667,930116,0,0,0,3590,2,0,280,0,0,0,0,2165,1220
[NT-INFO] Network Stats,6,4,lo,38798,459,0,0,0,0,0,0,38798,459,0,0,0,0,0,0
[NT-INFO] Network Stats,4,4,lo,39005,461,0,0,0,0,0,0,39005,461,0,0,0,0,0,0
[NT-INFO] Network Stats,4,4,ens4,41254160691,1823910,0,0,0,0,0,0,40815710466,1508368,0,0,0,0,0,0
 T =    4     Checksum =    5.140150594328D+02    5.121090289018D+02
[PI-INFO] Paramount Iteration,1,4,20.149085,3.069225
[RU-INFO] Resources Stats,1,4,11.908547,7.816359,930252,0,0,0,3610,2,0,280,0,0,0,0,2090,1414
[NT-INFO] Network Stats,1,4,ens4,34404748666,1582906,0,0,0,0,0,0,34117200743,1215051,0,0,0,0,0,0
[NT-INFO] Network Stats,1,4,lo,40841,481,0,0,0,0,0,0,40841,481,0,0,0,0,0,0
[PI-INFO] Paramount Iteration,0,4,20.149708,3.059772
[RU-INFO] Resources Stats,0,4,11.106541,8.609969,930348,0,0,0,3613,3,0,288,8,0,0,0,2171,1588
[NT-INFO] Network Stats,0,4,ens4,34499117088,1628444,0,0,0,0,0,0,35637541351,1554273,0,0,0,0,0,0
[NT-INFO] Network Stats,0,4,lo,37794,434,0,0,0,0,0,0,37794,434,0,0,0,0,0,0
[PI-INFO] Paramount Iteration,5,5,23.315472,3.211592
[RU-INFO] Resources Stats,5,5,12.949924,9.938407,930100,0,0,0,3594,2,0,280,0,0,0,0,2146,1387
[NT-INFO] Network Stats,5,5,ens4,41571552385,1722054,0,0,0,0,0,0,41045302291,1614501,0,0,0,0,0,0
[NT-INFO] Network Stats,5,5,lo,39502,473,0,0,0,0,0,0,39502,473,0,0,0,0,0,0
[PI-INFO] Paramount Iteration,7,5,23.318511,3.203760
[RU-INFO] Resources Stats,7,5,12.971253,9.895403,930388,0,0,0,3602,2,0,280,0,0,0,0,2166,1439
[NT-INFO] Network Stats,7,5,ens4,32938385415,1414333,0,0,0,0,0,0,32573496863,1226312,0,0,0,0,0,0
[NT-INFO] Network Stats,7,5,lo,38591,457,0,0,0,0,0,0,38591,457,0,0,0,0,0,0
[PI-INFO] Paramount Iteration,3,5,23.320334,3.197670
[RU-INFO] Resources Stats,3,5,14.233603,8.664976,930044,0,0,0,3613,2,0,280,0,0,0,0,2080,1407
[PI-INFO] Paramount Iteration,2,5,23.323473,3.197623
[NT-INFO] Network Stats,3,5,ens4,43042616287,1834946,0,0,0,0,0,0,42860014070,1578452,0,0,0,0,0,0
[NT-INFO] Network Stats,3,5,lo,39822,470,0,0,0,0,0,0,39822,470,0,0,0,0,0,0
[RU-INFO] Resources Stats,2,5,12.865665,10.030179,930068,0,0,0,3583,2,0,280,0,0,0,0,2223,1629
[NT-INFO] Network Stats,2,5,ens4,43390211492,1920286,0,0,0,0,0,0,42817458085,1589604,0,0,0,0,0,0
[NT-INFO] Network Stats,2,5,lo,39848,467,0,0,0,0,0,0,39848,467,0,0,0,0,0,0
[PI-INFO] Paramount Iteration,1,5,23.327943,3.178858
[RU-INFO] Resources Stats,1,5,13.827945,9.071964,930252,0,0,0,3610,2,0,280,0,0,0,0,2090,1599
[NT-INFO] Network Stats,1,5,ens4,34640391064,1594425,0,0,0,0,0,0,34352674287,1224001,0,0,0,0,0,0
[NT-INFO] Network Stats,1,5,lo,40841,481,0,0,0,0,0,0,40841,481,0,0,0,0,0,0
 T =    5     Checksum =    5.137550426810D+02    5.121143685824D+02
[PI-INFO] Paramount Iteration,6,5,23.355349,3.215636
[RU-INFO] Resources Stats,6,5,13.868521,9.053894,930064,0,0,0,3580,2,0,280,0,0,0,0,2174,1593
[NT-INFO] Network Stats,6,5,ens4,32796239302,1404869,0,0,0,0,0,0,32584430069,1202918,0,0,0,0,0,0
[NT-INFO] Network Stats,6,5,lo,38798,459,0,0,0,0,0,0,38798,459,0,0,0,0,0,0
[PI-INFO] Paramount Iteration,4,5,23.355894,3.215643
[RU-INFO] Resources Stats,4,5,13.537542,9.397070,930116,0,0,0,3593,2,0,280,0,0,0,0,2165,1401
[NT-INFO] Network Stats,4,5,lo,39005,461,0,0,0,0,0,0,39005,461,0,0,0,0,0,0
[NT-INFO] Network Stats,4,5,ens4,41489827321,1835795,0,0,0,0,0,0,41051223412,1517915,0,0,0,0,0,0
[PI-INFO] Paramount Iteration,0,5,23.356115,3.206407
[RU-INFO] Resources Stats,0,5,12.913233,10.004956,930348,0,0,0,3614,3,0,288,8,0,0,0,2171,1831
[NT-INFO] Network Stats,0,5,ens4,34734779479,1640204,0,0,0,0,0,0,35873062087,1563947,0,0,0,0,0,0
[NT-INFO] Network Stats,0,5,lo,37794,434,0,0,0,0,0,0,37794,434,0,0,0,0,0,0
[PI-INFO] Paramount Iteration,7,6,26.310751,2.992240
[RU-INFO] Resources Stats,7,6,14.691302,11.160277,930388,0,0,0,3602,2,0,280,0,0,0,0,2166,1619
[NT-INFO] Network Stats,7,6,ens4,33174033225,1425934,0,0,0,0,0,0,32809019385,1235855,0,0,0,0,0,0
[NT-INFO] Network Stats,7,6,lo,38591,457,0,0,0,0,0,0,38591,457,0,0,0,0,0,0
[PI-INFO] Paramount Iteration,5,6,26.330006,3.014534
[RU-INFO] Resources Stats,5,6,14.698716,11.199973,930100,0,0,0,3594,2,0,280,0,0,0,0,2146,1569
[NT-INFO] Network Stats,5,6,ens4,41807200741,1733660,0,0,0,0,0,0,41280835411,1623991,0,0,0,0,0,0
[NT-INFO] Network Stats,5,6,lo,39502,473,0,0,0,0,0,0,39502,473,0,0,0,0,0,0
[PI-INFO] Paramount Iteration,6,6,26.362356,3.007007
[RU-INFO] Resources Stats,6,6,15.737294,10.187890,930064,0,0,0,3583,2,0,280,0,0,0,0,2174,1783
[NT-INFO] Network Stats,6,6,ens4,33031885896,1416451,0,0,0,0,0,0,32819926797,1212216,0,0,0,0,0,0
[NT-INFO] Network Stats,6,6,lo,38798,459,0,0,0,0,0,0,38798,459,0,0,0,0,0,0
[PI-INFO] Paramount Iteration,4,6,26.376951,3.021057
[RU-INFO] Resources Stats,4,6,15.358610,10.593800,930116,0,0,0,3596,2,0,280,0,0,0,0,2165,1591
[NT-INFO] Network Stats,4,6,lo,39005,461,0,0,0,0,0,0,39005,461,0,0,0,0,0,0
[NT-INFO] Network Stats,4,6,ens4,41725510769,1847933,0,0,0,0,0,0,41286845016,1527487,0,0,0,0,0,0
[PI-INFO] Paramount Iteration,1,6,26.384841,3.056898
[RU-INFO] Resources Stats,1,6,15.667584,10.285101,930252,0,0,0,3610,2,0,280,0,0,0,0,2090,1785
[NT-INFO] Network Stats,1,6,ens4,34876058938,1606330,0,0,0,0,0,0,34588188523,1233565,0,0,0,0,0,0
[NT-INFO] Network Stats,1,6,lo,40841,481,0,0,0,0,0,0,40841,481,0,0,0,0,0,0
 T =    6     Checksum =    5.135811056728D+02    5.121496764568D+02
[PI-INFO] Paramount Iteration,0,6,26.402923,3.046808
[PI-INFO] Paramount Iteration,2,6,26.402752,3.079279
[PI-INFO] Paramount Iteration,3,6,26.399752,3.079418
[RU-INFO] Resources Stats,2,6,14.641101,11.329756,930068,0,0,0,3583,2,0,280,0,0,0,0,2223,1834
[RU-INFO] Resources Stats,3,6,16.106463,9.867058,930044,0,0,0,3613,2,0,280,0,0,0,0,2080,1591
[NT-INFO] Network Stats,2,6,ens4,43625913460,1932707,0,0,0,0,0,0,43052999940,1599589,0,0,0,0,0,0
[NT-INFO] Network Stats,3,6,ens4,43278279325,1846777,0,0,0,0,0,0,43095559884,1588241,0,0,0,0,0,0
[NT-INFO] Network Stats,2,6,lo,39848,467,0,0,0,0,0,0,39848,467,0,0,0,0,0,0
[NT-INFO] Network Stats,3,6,lo,39822,470,0,0,0,0,0,0,39822,470,0,0,0,0,0,0
[RU-INFO] Resources Stats,0,6,14.594195,11.366594,930348,0,0,0,3620,3,0,288,8,0,0,0,2171,2021
[NT-INFO] Network Stats,0,6,ens4,34970451116,1652094,0,0,0,0,0,0,36108556381,1573222,0,0,0,0,0,0
[NT-INFO] Network Stats,0,6,lo,37794,434,0,0,0,0,0,0,37794,434,0,0,0,0,0,0
[PI-INFO] Paramount Iteration,7,7,29.625600,3.314849
[RU-INFO] Resources Stats,7,7,16.636246,12.522572,930388,0,0,0,3602,2,0,280,0,0,0,0,2166,1812
[NT-INFO] Network Stats,7,7,ens4,33409701309,1437842,0,0,0,0,0,0,33044555788,1245606,0,0,0,0,0,0
[NT-INFO] Network Stats,7,7,lo,38591,457,0,0,0,0,0,0,38591,457,0,0,0,0,0,0
[PI-INFO] Paramount Iteration,5,7,29.629531,3.299525
[RU-INFO] Resources Stats,5,7,16.456090,12.737877,930100,0,0,0,3594,2,0,280,0,0,0,0,2146,1771
[NT-INFO] Network Stats,5,7,ens4,42042894619,1745959,0,0,0,0,0,0,41516348226,1633536,0,0,0,0,0,0
[NT-INFO] Network Stats,5,7,lo,39502,473,0,0,0,0,0,0,39502,473,0,0,0,0,0,0
[PI-INFO] Paramount Iteration,6,7,29.670273,3.307917
[RU-INFO] Resources Stats,6,7,17.621180,11.607603,930064,0,0,0,3583,2,0,280,0,0,0,0,2174,1973
[NT-INFO] Network Stats,6,7,ens4,33267540674,1428157,0,0,0,0,0,0,33055429580,1221609,0,0,0,0,0,0
[PI-INFO] Paramount Iteration,4,7,29.670820,3.293869
[NT-INFO] Network Stats,6,7,lo,38798,459,0,0,0,0,0,0,38798,459,0,0,0,0,0,0
[RU-INFO] Resources Stats,4,7,17.311931,11.930709,930116,0,0,0,3597,2,0,280,0,0,0,0,2165,1776
[NT-INFO] Network Stats,4,7,lo,39005,461,0,0,0,0,0,0,39005,461,0,0,0,0,0,0
[NT-INFO] Network Stats,4,7,ens4,41961171777,1859729,0,0,0,0,0,0,41522367555,1536966,0,0,0,0,0,0
[PI-INFO] Paramount Iteration,3,7,29.669596,3.269844
[RU-INFO] Resources Stats,3,7,18.184391,11.053806,930044,0,0,0,3613,2,0,280,0,0,0,0,2080,1784
[PI-INFO] Paramount Iteration,2,7,29.672676,3.269924
[NT-INFO] Network Stats,3,7,ens4,43513940665,1858583,0,0,0,0,0,0,43331078164,1597865,0,0,0,0,0,0
[RU-INFO] Resources Stats,2,7,16.521910,12.715313,930068,0,0,0,3583,2,0,280,0,0,0,0,2223,2023
[NT-INFO] Network Stats,3,7,lo,39822,470,0,0,0,0,0,0,39822,470,0,0,0,0,0,0
[NT-INFO] Network Stats,2,7,ens4,43861611666,1945071,0,0,0,0,0,0,43288545887,1609636,0,0,0,0,0,0
[NT-INFO] Network Stats,2,7,lo,39848,467,0,0,0,0,0,0,39848,467,0,0,0,0,0,0
 T =    7     Checksum =    5.134569343165D+02    5.121870921893D+02
[PI-INFO] Paramount Iteration,0,7,29.688489,3.285566
[RU-INFO] Resources Stats,0,7,16.342685,12.898962,930348,0,0,0,3620,3,0,288,8,0,0,0,2171,2235
[NT-INFO] Network Stats,0,7,ens4,35206141677,1664254,0,0,0,0,0,0,36344068639,1582769,0,0,0,0,0,0
[NT-INFO] Network Stats,0,7,lo,37794,434,0,0,0,0,0,0,37794,434,0,0,0,0,0,0
[PI-INFO] Paramount Iteration,1,7,29.687942,3.303101
[RU-INFO] Resources Stats,1,7,17.558968,11.692649,930252,0,0,0,3610,2,0,280,0,0,0,0,2090,1971
[NT-INFO] Network Stats,1,7,ens4,35111723050,1618178,0,0,0,0,0,0,34823708730,1243222,0,0,0,0,0,0
[NT-INFO] Network Stats,1,7,lo,40841,481,0,0,0,0,0,0,40841,481,0,0,0,0,0,0
[PI-INFO] Paramount Iteration,7,8,32.857055,3.231455
[RU-INFO] Resources Stats,7,8,18.398870,13.976909,930388,0,0,0,3602,2,0,280,0,0,0,0,2166,2024
[NT-INFO] Network Stats,7,8,ens4,33645358315,1449581,0,0,0,0,0,0,33280057053,1254820,0,0,0,0,0,0
[NT-INFO] Network Stats,7,8,lo,38591,457,0,0,0,0,0,0,38591,457,0,0,0,0,0,0
[PI-INFO] Paramount Iteration,5,8,32.903024,3.273493
[RU-INFO] Resources Stats,5,8,18.291639,14.169523,930100,0,0,0,3594,2,0,280,0,0,0,0,2146,1965
[NT-INFO] Network Stats,5,8,ens4,42278574373,1758044,0,0,0,0,0,0,41751856025,1643005,0,0,0,0,0,0
[NT-INFO] Network Stats,5,8,lo,39502,473,0,0,0,0,0,0,39502,473,0,0,0,0,0,0
[PI-INFO] Paramount Iteration,1,8,32.929731,3.241789
[RU-INFO] Resources Stats,1,8,19.533350,12.952895,930252,0,0,0,3611,2,0,280,0,0,0,0,2090,2177
[NT-INFO] Network Stats,1,8,ens4,35347386436,1630015,0,0,0,0,0,0,35059205903,1252530,0,0,0,0,0,0
[NT-INFO] Network Stats,1,8,lo,40841,481,0,0,0,0,0,0,40841,481,0,0,0,0,0,0
[PI-INFO] Paramount Iteration,6,8,32.933074,3.262801
[RU-INFO] Resources Stats,6,8,19.535676,12.949179,930064,0,0,0,3583,2,0,280,0,0,0,0,2174,2171
[PI-INFO] Paramount Iteration,4,8,32.933611,3.262791
[RU-INFO] Resources Stats,4,8,19.180521,13.319139,930116,0,0,0,3597,2,0,280,0,0,0,0,2165,1969
[NT-INFO] Network Stats,6,8,ens4,33503171758,1439504,0,0,0,0,0,0,33290928931,1230950,0,0,0,0,0,0
[NT-INFO] Network Stats,6,8,lo,38798,459,0,0,0,0,0,0,38798,459,0,0,0,0,0,0
[NT-INFO] Network Stats,4,8,lo,39005,461,0,0,0,0,0,0,39005,461,0,0,0,0,0,0
[NT-INFO] Network Stats,4,8,ens4,42196816033,1871275,0,0,0,0,0,0,41757863012,1546248,0,0,0,0,0,0
 T =    8     Checksum =    5.133651975661D+02    5.122193250322D+02
[PI-INFO] Paramount Iteration,3,8,32.939121,3.269525
[RU-INFO] Resources Stats,3,8,20.243060,12.257853,930044,0,0,0,3613,2,0,280,0,0,0,0,2080,1974
[PI-INFO] Paramount Iteration,2,8,32.942160,3.269484
[RU-INFO] Resources Stats,2,8,18.344282,14.157130,930068,0,0,0,3583,2,0,280,0,0,0,0,2223,2222
[NT-INFO] Network Stats,2,8,ens4,44097273242,1956880,0,0,0,0,0,0,43524084706,1619575,0,0,0,0,0,0
[NT-INFO] Network Stats,3,8,ens4,43749595933,1870297,0,0,0,0,0,0,43566583719,1607300,0,0,0,0,0,0
[NT-INFO] Network Stats,3,8,lo,39822,470,0,0,0,0,0,0,39822,470,0,0,0,0,0,0
[NT-INFO] Network Stats,2,8,lo,39848,467,0,0,0,0,0,0,39848,467,0,0,0,0,0,0
[PI-INFO] Paramount Iteration,0,8,32.942356,3.253867
[RU-INFO] Resources Stats,0,8,18.209679,14.266181,930348,0,0,0,3620,3,0,288,8,0,0,0,2171,2493
[NT-INFO] Network Stats,0,8,ens4,35441788391,1675744,0,0,0,0,0,0,36579585520,1592365,0,0,0,0,0,0
[NT-INFO] Network Stats,0,8,lo,37794,434,0,0,0,0,0,0,37794,434,0,0,0,0,0,0
[PI-INFO] Paramount Iteration,7,9,36.006070,3.149015
[RU-INFO] Resources Stats,7,9,20.157309,15.359662,930388,0,0,0,3602,2,0,280,0,0,0,0,2166,2218
[NT-INFO] Network Stats,7,9,ens4,33881020645,1461402,0,0,0,0,0,0,33515588786,1264496,0,0,0,0,0,0
[NT-INFO] Network Stats,7,9,lo,38591,457,0,0,0,0,0,0,38591,457,0,0,0,0,0,0
[PI-INFO] Paramount Iteration,5,9,36.023876,3.120852
[RU-INFO] Resources Stats,5,9,19.991705,15.585533,930100,0,0,0,3595,2,0,280,0,0,0,0,2146,2158
[NT-INFO] Network Stats,5,9,ens4,42514233667,1769819,0,0,0,0,0,0,41987338810,1652095,0,0,0,0,0,0
[NT-INFO] Network Stats,5,9,lo,39502,473,0,0,0,0,0,0,39502,473,0,0,0,0,0,0
[PI-INFO] Paramount Iteration,3,9,36.049713,3.110592
[PI-INFO] Paramount Iteration,2,9,36.052781,3.110621
[RU-INFO] Resources Stats,3,9,22.216397,13.390650,930044,0,0,0,3614,2,0,280,0,0,0,0,2080,2161
[NT-INFO] Network Stats,3,9,ens4,43985242729,1881883,0,0,0,0,0,0,43802078152,1616564,0,0,0,0,0,0
[RU-INFO] Resources Stats,2,9,20.104372,15.501203,930068,0,0,0,3584,2,0,280,0,0,0,0,2223,2490
[NT-INFO] Network Stats,3,9,lo,39822,470,0,0,0,0,0,0,39822,470,0,0,0,0,0,0
[NT-INFO] Network Stats,2,9,ens4,44332957324,1969030,0,0,0,0,0,0,43759632171,1629645,0,0,0,0,0,0
[NT-INFO] Network Stats,2,9,lo,39848,467,0,0,0,0,0,0,39848,467,0,0,0,0,0,0
[PI-INFO] Paramount Iteration,6,9,36.055086,3.122012
[RU-INFO] Resources Stats,6,9,21.322567,14.280324,930064,0,0,0,3583,2,0,280,0,0,0,0,2174,2352
[PI-INFO] Paramount Iteration,4,9,36.055639,3.122028
[NT-INFO] Network Stats,6,9,ens4,33738815184,1451038,0,0,0,0,0,0,33526415874,1240103,0,0,0,0,0,0
[RU-INFO] Resources Stats,4,9,21.109552,14.509067,930116,0,0,0,3597,2,0,280,0,0,0,0,2165,2148
[NT-INFO] Network Stats,6,9,lo,38798,459,0,0,0,0,0,0,38798,459,0,0,0,0,0,0
[NT-INFO] Network Stats,4,9,lo,39005,461,0,0,0,0,0,0,39005,461,0,0,0,0,0,0
[NT-INFO] Network Stats,4,9,ens4,42432472367,1883004,0,0,0,0,0,0,41993363419,1555605,0,0,0,0,0,0
 T =    9     Checksum =    5.132955192805D+02    5.122454735794D+02
[PI-INFO] Paramount Iteration,0,9,36.065365,3.123009
[PI-INFO] Paramount Iteration,1,9,36.064806,3.135075
[RU-INFO] Resources Stats,1,9,21.382142,14.234763,930252,0,0,0,3614,2,0,280,0,0,0,0,2090,2374
[NT-INFO] Network Stats,1,9,ens4,35583041100,1641717,0,0,0,0,0,0,35294783134,1262091,0,0,0,0,0,0
[RU-INFO] Resources Stats,0,9,19.990397,15.603627,930348,0,0,0,3621,3,0,288,8,0,0,0,2171,2697
[NT-INFO] Network Stats,1,9,lo,40841,481,0,0,0,0,0,0,40841,481,0,0,0,0,0,0
[NT-INFO] Network Stats,0,9,ens4,35677447949,1687461,0,0,0,0,0,0,36815099020,1601931,0,0,0,0,0,0
[NT-INFO] Network Stats,0,9,lo,37794,434,0,0,0,0,0,0,37794,434,0,0,0,0,0,0
[PI-INFO] Paramount Iteration,7,10,38.978798,2.972728
[RU-INFO] Resources Stats,7,10,21.932049,16.550907,930388,0,0,0,3603,2,0,280,0,0,0,0,2166,2403
[NT-INFO] Network Stats,7,10,ens4,34116685549,1473262,0,0,0,0,0,0,33751105155,1274026,0,0,0,0,0,0
[NT-INFO] Network Stats,7,10,lo,38591,457,0,0,0,0,0,0,38591,457,0,0,0,0,0,0
[PI-INFO] Paramount Iteration,5,10,39.036823,3.012947
[RU-INFO] Resources Stats,5,10,21.728292,16.858020,930100,0,0,0,3595,2,0,280,0,0,0,0,2146,2339
[NT-INFO] Network Stats,5,10,ens4,42749888473,1781526,0,0,0,0,0,0,42222818889,1661144,0,0,0,0,0,0
[NT-INFO] Network Stats,5,10,lo,39502,473,0,0,0,0,0,0,39502,473,0,0,0,0,0,0
[PI-INFO] Paramount Iteration,1,10,39.039737,2.974931
[RU-INFO] Resources Stats,1,10,23.205549,15.382375,930252,0,0,0,3614,2,0,280,0,0,0,0,2090,2558
[NT-INFO] Network Stats,1,10,ens4,35818696302,1653430,0,0,0,0,0,0,35530272783,1271285,0,0,0,0,0,0
[NT-INFO] Network Stats,1,10,lo,40841,481,0,0,0,0,0,0,40841,481,0,0,0,0,0,0
[PI-INFO] Paramount Iteration,6,10,39.061832,3.006746
[RU-INFO] Resources Stats,6,10,23.219373,15.386332,930064,0,0,0,3584,2,0,280,0,0,0,0,2174,2541
[NT-INFO] Network Stats,6,10,ens4,33974443922,1462348,0,0,0,0,0,0,33762000167,1249451,0,0,0,0,0,0
[NT-INFO] Network Stats,6,10,lo,38798,459,0,0,0,0,0,0,38798,459,0,0,0,0,0,0
[PI-INFO] Paramount Iteration,4,10,39.062416,3.006777
[RU-INFO] Resources Stats,4,10,22.909066,15.712731,930116,0,0,0,3597,2,0,280,0,0,0,0,2165,2333
[NT-INFO] Network Stats,4,10,lo,39005,461,0,0,0,0,0,0,39005,461,0,0,0,0,0,0
[NT-INFO] Network Stats,4,10,ens4,42668110485,1894457,0,0,0,0,0,0,42228867852,1565023,0,0,0,0,0,0
 T =   10     Checksum =    5.132410471738D+02    5.122663649603D+02
[PI-INFO] Paramount Iteration,0,10,39.085456,3.020091
[RU-INFO] Resources Stats,0,10,21.742459,16.863702,930348,0,0,0,3621,3,0,288,8,0,0,0,2171,2909
[NT-INFO] Network Stats,0,10,ens4,35913091885,1698941,0,0,0,0,0,0,37050602290,1611342,0,0,0,0,0,0
[PI-INFO] Paramount Iteration,3,10,39.082285,3.032572
[PI-INFO] Paramount Iteration,2,10,39.085301,3.032520
[RU-INFO] Resources Stats,2,10,21.792997,16.841679,930068,0,0,0,3584,2,0,280,0,0,0,0,2223,2671
[NT-INFO] Network Stats,2,10,ens4,44568615996,1980795,0,0,0,0,0,0,43995178382,1639696,0,0,0,0,0,0
[RU-INFO] Resources Stats,3,10,24.025632,14.608992,930044,0,0,0,3614,2,0,280,0,0,0,0,2080,2358
[NT-INFO] Network Stats,2,10,lo,39848,467,0,0,0,0,0,0,39848,467,0,0,0,0,0,0
[NT-INFO] Network Stats,3,10,ens4,44220902353,1893663,0,0,0,0,0,0,44037548559,1625465,0,0,0,0,0,0
[NT-INFO] Network Stats,0,10,lo,37794,434,0,0,0,0,0,0,37794,434,0,0,0,0,0,0
[NT-INFO] Network Stats,3,10,lo,39822,470,0,0,0,0,0,0,39822,470,0,0,0,0,0,0
[PI-INFO] Paramount Iteration,7,11,42.172592,3.193794
[RU-INFO] Resources Stats,7,11,23.696903,17.972415,930388,0,0,0,3603,2,0,280,0,0,0,0,2166,2602
[NT-INFO] Network Stats,7,11,ens4,34352368273,1485392,0,0,0,0,0,0,33986622544,1283480,0,0,0,0,0,0
[NT-INFO] Network Stats,7,11,lo,38591,457,0,0,0,0,0,0,38591,457,0,0,0,0,0,0
[PI-INFO] Paramount Iteration,5,11,42.179280,3.142457
[RU-INFO] Resources Stats,5,11,23.523796,18.200747,930100,0,0,0,3597,2,0,280,0,0,0,0,2146,2529
[NT-INFO] Network Stats,5,11,ens4,42985547485,1793288,0,0,0,0,0,0,42458686986,1670632,0,0,0,0,0,0
[NT-INFO] Network Stats,5,11,lo,39502,473,0,0,0,0,0,0,39502,473,0,0,0,0,0,0
[PI-INFO] Paramount Iteration,1,11,42.222949,3.183212
[RU-INFO] Resources Stats,1,11,25.097098,16.670073,930252,0,0,0,3617,2,0,280,0,0,0,0,2090,2744
[NT-INFO] Network Stats,1,11,ens4,36054358302,1665246,0,0,0,0,0,0,35765767816,1280543,0,0,0,0,0,0
[NT-INFO] Network Stats,1,11,lo,40841,481,0,0,0,0,0,0,40841,481,0,0,0,0,0,0
[PI-INFO] Paramount Iteration,6,11,42.222984,3.161152
[PI-INFO] Paramount Iteration,4,11,42.223508,3.161092
[RU-INFO] Resources Stats,6,11,25.183838,16.578727,930064,0,0,0,3584,2,0,280,0,0,0,0,2174,2727
[NT-INFO] Network Stats,6,11,ens4,34210072652,1473652,0,0,0,0,0,0,33997632600,1258675,0,0,0,0,0,0
[RU-INFO] Resources Stats,4,11,24.777326,17.002165,930116,0,0,0,3597,2,0,280,0,0,0,0,2165,2517
[NT-INFO] Network Stats,4,11,lo,39005,461,0,0,0,0,0,0,39005,461,0,0,0,0,0,0
[NT-INFO] Network Stats,6,11,lo,38798,459,0,0,0,0,0,0,38798,459,0,0,0,0,0,0
[NT-INFO] Network Stats,4,11,ens4,42903769459,1906226,0,0,0,0,0,0,42464357109,1574211,0,0,0,0,0,0
 T =   11     Checksum =    5.131971141679D+02    5.122830879827D+02
[PI-INFO] Paramount Iteration,3,11,42.252670,3.170385
[RU-INFO] Resources Stats,3,11,25.952338,15.848206,930044,0,0,0,3614,2,0,280,0,0,0,0,2080,2548
[PI-INFO] Paramount Iteration,2,11,42.255716,3.170415
[NT-INFO] Network Stats,3,11,ens4,44456549533,1905253,0,0,0,0,0,0,44273184688,1634937,0,0,0,0,0,0
[RU-INFO] Resources Stats,2,11,23.568393,18.233209,930068,0,0,0,3584,2,0,280,0,0,0,0,2223,2864
[NT-INFO] Network Stats,3,11,lo,39822,470,0,0,0,0,0,0,39822,470,0,0,0,0,0,0
[NT-INFO] Network Stats,2,11,ens4,44804287142,1992749,0,0,0,0,0,0,44230721033,1649693,0,0,0,0,0,0
[NT-INFO] Network Stats,2,11,lo,39848,467,0,0,0,0,0,0,39848,467,0,0,0,0,0,0
[PI-INFO] Paramount Iteration,0,11,42.255868,3.170412
[RU-INFO] Resources Stats,0,11,23.430986,18.340944,930348,0,0,0,3621,3,0,288,8,0,0,0,2171,3116
[NT-INFO] Network Stats,0,11,ens4,36148745402,1710556,0,0,0,0,0,0,37286102392,1620705,0,0,0,0,0,0
[NT-INFO] Network Stats,0,11,lo,37794,434,0,0,0,0,0,0,37794,434,0,0,0,0,0,0
[PI-INFO] Paramount Iteration,7,12,45.423201,3.250609
[RU-INFO] Resources Stats,7,12,25.470491,19.442422,930388,0,0,0,3603,2,0,280,0,0,0,0,2166,2802
[NT-INFO] Network Stats,7,12,ens4,34588039049,1497340,0,0,0,0,0,0,34222150545,1293184,0,0,0,0,0,0
[NT-INFO] Network Stats,7,12,lo,38591,457,0,0,0,0,0,0,38591,457,0,0,0,0,0,0
[PI-INFO] Paramount Iteration,5,12,45.428247,3.248967
[RU-INFO] Resources Stats,5,12,25.343852,19.625690,930100,0,0,0,3597,2,0,280,0,0,0,0,2146,2713
[NT-INFO] Network Stats,5,12,ens4,43221198925,1804944,0,0,0,0,0,0,42694160601,1679583,0,0,0,0,0,0
[NT-INFO] Network Stats,5,12,lo,39502,473,0,0,0,0,0,0,39502,473,0,0,0,0,0,0
[PI-INFO] Paramount Iteration,3,12,45.440086,3.187416
[RU-INFO] Resources Stats,3,12,27.957341,17.026380,930044,0,0,0,3614,2,0,280,0,0,0,0,2080,2737
[PI-INFO] Paramount Iteration,2,12,45.443187,3.187471
[NT-INFO] Network Stats,3,12,ens4,44692223809,1917255,0,0,0,0,0,0,44508683317,1644267,0,0,0,0,0,0
[NT-INFO] Network Stats,3,12,lo,39822,470,0,0,0,0,0,0,39822,470,0,0,0,0,0,0
[RU-INFO] Resources Stats,2,12,25.412356,19.573193,930068,0,0,0,3584,2,0,280,0,0,0,0,2223,3061
[NT-INFO] Network Stats,2,12,ens4,45039940996,2004441,0,0,0,0,0,0,44466277808,1659904,0,0,0,0,0,0
[NT-INFO] Network Stats,2,12,lo,39848,467,0,0,0,0,0,0,39848,467,0,0,0,0,0,0
[PI-INFO] Paramount Iteration,6,12,45.462301,3.239317
[RU-INFO] Resources Stats,6,12,27.137498,17.859823,930064,0,0,0,3584,2,0,280,0,0,0,0,2174,2920
[NT-INFO] Network Stats,6,12,ens4,34445721622,1485270,0,0,0,0,0,0,34233141063,1268154,0,0,0,0,0,0
[NT-INFO] Network Stats,6,12,lo,38798,459,0,0,0,0,0,0,38798,459,0,0,0,0,0,0
[PI-INFO] Paramount Iteration,4,12,45.462880,3.239372
[RU-INFO] Resources Stats,4,12,26.625161,18.390039,930116,0,0,0,3597,2,0,280,0,0,0,0,2165,2712
[NT-INFO] Network Stats,4,12,lo,39005,461,0,0,0,0,0,0,39005,461,0,0,0,0,0,0
[NT-INFO] Network Stats,4,12,ens4,43139427323,1917976,0,0,0,0,0,0,42699876548,1583750,0,0,0,0,0,0
 T =   12     Checksum =    5.131605205716D+02    5.122965869718D+02
[PI-INFO] Paramount Iteration,0,12,45.470509,3.214641
[RU-INFO] Resources Stats,0,12,25.200368,19.782009,930348,0,0,0,3621,3,0,288,8,0,0,0,2171,3308
[NT-INFO] Network Stats,0,12,ens4,36384407506,1722291,0,0,0,0,0,0,37521607708,1630147,0,0,0,0,0,0
[NT-INFO] Network Stats,0,12,lo,37794,434,0,0,0,0,0,0,37794,434,0,0,0,0,0,0
[PI-INFO] Paramount Iteration,1,12,45.469976,3.247027
[RU-INFO] Resources Stats,1,12,27.009655,17.999772,930252,0,0,0,3617,2,0,280,0,0,0,0,2090,2934
[NT-INFO] Network Stats,1,12,ens4,36290020632,1677067,0,0,0,0,0,0,36001255789,1289709,0,0,0,0,0,0
[NT-INFO] Network Stats,1,12,lo,40841,481,0,0,0,0,0,0,40841,481,0,0,0,0,0,0
[PI-INFO] Paramount Iteration,5,13,48.376441,2.948194
[RU-INFO] Resources Stats,5,13,27.030019,20.884288,930100,0,0,0,3600,2,0,280,0,0,0,0,2146,2891
[NT-INFO] Network Stats,5,13,ens4,43456857667,1816711,0,0,0,0,0,0,42929649108,1688760,0,0,0,0,0,0
[NT-INFO] Network Stats,5,13,lo,39502,473,0,0,0,0,0,0,39502,473,0,0,0,0,0,0
[PI-INFO] Paramount Iteration,7,13,48.414704,2.991503
[RU-INFO] Resources Stats,7,13,27.214432,20.683447,930388,0,0,0,3603,2,0,280,0,0,0,0,2166,2994
[PI-INFO] Paramount Iteration,6,13,48.414849,2.952548
[NT-INFO] Network Stats,7,13,ens4,34823688155,1508961,0,0,0,0,0,0,34457661702,1302638,0,0,0,0,0,0
[NT-INFO] Network Stats,7,13,lo,38591,457,0,0,0,0,0,0,38591,457,0,0,0,0,0,0
[RU-INFO] Resources Stats,6,13,28.899307,19.046362,930064,0,0,0,3584,2,0,280,0,0,0,0,2174,3108
[NT-INFO] Network Stats,6,13,ens4,34681376706,1496981,0,0,0,0,0,0,34468647060,1277596,0,0,0,0,0,0
[NT-INFO] Network Stats,6,13,lo,38798,459,0,0,0,0,0,0,38798,459,0,0,0,0,0,0
[PI-INFO] Paramount Iteration,4,13,48.422000,2.959120
[RU-INFO] Resources Stats,4,13,28.390579,19.580261,930116,0,0,0,3598,2,0,280,0,0,0,0,2165,2900
[NT-INFO] Network Stats,4,13,lo,39005,461,0,0,0,0,0,0,39005,461,0,0,0,0,0,0
[NT-INFO] Network Stats,4,13,ens4,43375064007,1929406,0,0,0,0,0,0,42935375065,1592908,0,0,0,0,0,0
[PI-INFO] Paramount Iteration,1,13,48.430238,2.960262
[RU-INFO] Resources Stats,1,13,28.793987,19.171996,930252,0,0,0,3617,2,0,280,0,0,0,0,2090,3113
[NT-INFO] Network Stats,1,13,ens4,36525658290,1688512,0,0,0,0,0,0,36236863264,1298832,0,0,0,0,0,0
[NT-INFO] Network Stats,1,13,lo,40841,481,0,0,0,0,0,0,40841,481,0,0,0,0,0,0
 T =   13     Checksum =    5.131290734194D+02    5.123075927445D+02
[PI-INFO] Paramount Iteration,2,13,48.447256,3.004069
[PI-INFO] Paramount Iteration,3,13,48.444254,3.004168
[RU-INFO] Resources Stats,3,13,29.730683,18.252735,930044,0,0,0,3614,2,0,280,0,0,0,0,2080,2925
[RU-INFO] Resources Stats,2,13,27.158615,20.827871,930068,0,0,0,3586,2,0,280,0,0,0,0,2223,3244
[NT-INFO] Network Stats,2,13,ens4,45275592384,2016096,0,0,0,0,0,0,44701817531,1669857,0,0,0,0,0,0
[NT-INFO] Network Stats,3,13,ens4,44927894005,1929195,0,0,0,0,0,0,44744193792,1653538,0,0,0,0,0,0
[NT-INFO] Network Stats,2,13,lo,39848,467,0,0,0,0,0,0,39848,467,0,0,0,0,0,0
[NT-INFO] Network Stats,3,13,lo,39822,470,0,0,0,0,0,0,39822,470,0,0,0,0,0,0
[PI-INFO] Paramount Iteration,0,13,48.447448,2.976939
[RU-INFO] Resources Stats,0,13,26.972199,20.982820,930348,0,0,0,3621,3,0,288,8,0,0,0,2171,3510
[NT-INFO] Network Stats,0,13,ens4,36620071288,1734072,0,0,0,0,0,0,37757121844,1639723,0,0,0,0,0,0
[NT-INFO] Network Stats,0,13,lo,37794,434,0,0,0,0,0,0,37794,434,0,0,0,0,0,0
[PI-INFO] Paramount Iteration,5,14,51.538606,3.162165
[RU-INFO] Resources Stats,5,14,28.731154,22.341121,930100,0,0,0,3601,2,0,280,0,0,0,0,2146,3086
[NT-INFO] Network Stats,5,14,ens4,43692491581,1828098,0,0,0,0,0,0,43165128931,1697783,0,0,0,0,0,0
[NT-INFO] Network Stats,5,14,lo,39502,473,0,0,0,0,0,0,39502,473,0,0,0,0,0,0
[PI-INFO] Paramount Iteration,7,14,51.605655,3.190951
[RU-INFO] Resources Stats,7,14,29.004142,22.077661,930388,0,0,0,3609,2,0,280,0,0,0,0,2166,3174
[NT-INFO] Network Stats,7,14,ens4,35059329611,1520465,0,0,0,0,0,0,34693182381,1311375,0,0,0,0,0,0
[NT-INFO] Network Stats,7,14,lo,38591,457,0,0,0,0,0,0,38591,457,0,0,0,0,0,0
[PI-INFO] Paramount Iteration,6,14,51.605798,3.190949
[PI-INFO] Paramount Iteration,4,14,51.606348,3.184348
[RU-INFO] Resources Stats,6,14,30.796252,20.336318,930064,0,0,0,3584,2,0,280,0,0,0,0,2174,3284
[NT-INFO] Network Stats,6,14,ens4,34917000062,1508210,0,0,0,0,0,0,34704183265,1287026,0,0,0,0,0,0
[NT-INFO] Network Stats,6,14,lo,38798,459,0,0,0,0,0,0,38798,459,0,0,0,0,0,0
[RU-INFO] Resources Stats,4,14,30.236966,20.915134,930116,0,0,0,3598,2,0,280,0,0,0,0,2165,3083
[NT-INFO] Network Stats,4,14,lo,39005,461,0,0,0,0,0,0,39005,461,0,0,0,0,0,0
[NT-INFO] Network Stats,4,14,ens4,43610724649,1941199,0,0,0,0,0,0,43170975042,1602258,0,0,0,0,0,0
[PI-INFO] Paramount Iteration,1,14,51.627181,3.196943
[RU-INFO] Resources Stats,1,14,30.728265,20.429517,930252,0,0,0,3621,2,0,280,0,0,0,0,2090,3315
[NT-INFO] Network Stats,1,14,ens4,36761322534,1700362,0,0,0,0,0,0,36472360459,1308139,0,0,0,0,0,0
[NT-INFO] Network Stats,1,14,lo,40841,481,0,0,0,0,0,0,40841,481,0,0,0,0,0,0
 T =   14     Checksum =    5.131012720314D+02    5.123166486553D+02
[PI-INFO] Paramount Iteration,3,14,51.626600,3.182346
[RU-INFO] Resources Stats,3,14,31.641900,19.518704,930044,0,0,0,3614,2,0,280,0,0,0,0,2080,3119
[PI-INFO] Paramount Iteration,2,14,51.629689,3.182433
[NT-INFO] Network Stats,3,14,ens4,45163572373,1941259,0,0,0,0,0,0,44979660477,1662384,0,0,0,0,0,0
[RU-INFO] Resources Stats,2,14,28.931929,22.233798,930068,0,0,0,3586,2,0,280,0,0,0,0,2223,3421
[NT-INFO] Network Stats,3,14,lo,39822,470,0,0,0,0,0,0,39822,470,0,0,0,0,0,0
[NT-INFO] Network Stats,2,14,ens4,45511197266,2027046,0,0,0,0,0,0,44937365132,1679929,0,0,0,0,0,0
[NT-INFO] Network Stats,2,14,lo,39848,467,0,0,0,0,0,0,39848,467,0,0,0,0,0,0
[PI-INFO] Paramount Iteration,0,14,51.629835,3.182387
[RU-INFO] Resources Stats,0,14,28.801672,22.331094,930348,0,0,0,3621,3,0,288,8,0,0,0,2171,3718
[NT-INFO] Network Stats,0,14,ens4,36855752096,1746096,0,0,0,0,0,0,37992650302,1649516,0,0,0,0,0,0
[NT-INFO] Network Stats,0,14,lo,37794,434,0,0,0,0,0,0,37794,434,0,0,0,0,0,0
[PI-INFO] Paramount Iteration,5,15,54.553343,3.014737
[RU-INFO] Resources Stats,5,15,30.472252,23.610897,930100,0,0,0,3601,2,0,280,0,0,0,0,2146,3271
[NT-INFO] Network Stats,5,15,ens4,43928125663,1839491,0,0,0,0,0,0,43400617990,1706968,0,0,0,0,0,0
[NT-INFO] Network Stats,5,15,lo,39502,473,0,0,0,0,0,0,39502,473,0,0,0,0,0,0
[PI-INFO] Paramount Iteration,7,15,54.614395,3.008740
[RU-INFO] Resources Stats,7,15,30.728235,23.354737,930388,0,0,0,3613,2,0,280,0,0,0,0,2166,3370
[NT-INFO] Network Stats,7,15,ens4,35294988971,1532241,0,0,0,0,0,0,34928679930,1320533,0,0,0,0,0,0
[PI-INFO] Paramount Iteration,4,15,54.615072,3.008724
[NT-INFO] Network Stats,7,15,lo,38591,457,0,0,0,0,0,0,38591,457,0,0,0,0,0,0
[PI-INFO] Paramount Iteration,6,15,54.614527,3.008729
[RU-INFO] Resources Stats,4,15,32.061182,22.096544,930116,0,0,0,3598,2,0,280,0,0,0,0,2165,3268
[RU-INFO] Resources Stats,6,15,32.638377,21.499122,930064,0,0,0,3588,2,0,280,0,0,0,0,2174,3459
[NT-INFO] Network Stats,6,15,ens4,35152590652,1518942,0,0,0,0,0,0,34939681370,1296326,0,0,0,0,0,0
[NT-INFO] Network Stats,4,15,lo,39005,461,0,0,0,0,0,0,39005,461,0,0,0,0,0,0
[NT-INFO] Network Stats,6,15,lo,38798,459,0,0,0,0,0,0,38798,459,0,0,0,0,0,0
[NT-INFO] Network Stats,4,15,ens4,43846365077,1952687,0,0,0,0,0,0,43406454693,1611299,0,0,0,0,0,0
[PI-INFO] Paramount Iteration,1,15,54.621910,2.994729
[RU-INFO] Resources Stats,1,15,32.539266,21.608856,930252,0,0,0,3621,2,0,280,0,0,0,0,2090,3508
[NT-INFO] Network Stats,1,15,ens4,36996974964,1712033,0,0,0,0,0,0,36707839948,1317179,0,0,0,0,0,0
[NT-INFO] Network Stats,1,15,lo,40841,481,0,0,0,0,0,0,40841,481,0,0,0,0,0,0
 T =   15     Checksum =    5.130760908195D+02    5.123241541685D+02
[PI-INFO] Paramount Iteration,3,15,54.631871,3.005271
[PI-INFO] Paramount Iteration,2,15,54.634885,3.005196
[RU-INFO] Resources Stats,3,15,33.513424,20.647948,930044,0,0,0,3615,2,0,280,0,0,0,0,2080,3305
[RU-INFO] Resources Stats,2,15,30.590904,23.576990,930068,0,0,0,3590,2,0,280,0,0,0,0,2223,3595
[NT-INFO] Network Stats,3,15,ens4,45399243811,1953218,0,0,0,0,0,0,45215163792,1671785,0,0,0,0,0,0
[NT-INFO] Network Stats,2,15,ens4,45746851102,2038737,0,0,0,0,0,0,45172909565,1689761,0,0,0,0,0,0
[NT-INFO] Network Stats,3,15,lo,39822,470,0,0,0,0,0,0,39822,470,0,0,0,0,0,0
[NT-INFO] Network Stats,2,15,lo,39848,467,0,0,0,0,0,0,39848,467,0,0,0,0,0,0
[PI-INFO] Paramount Iteration,0,15,54.635041,3.005206
[RU-INFO] Resources Stats,0,15,30.491911,23.634629,930348,0,0,0,3622,3,0,288,8,0,0,0,2171,4160
[NT-INFO] Network Stats,0,15,ens4,37091398214,1757553,0,0,0,0,0,0,38228144393,1658780,0,0,0,0,0,0
[NT-INFO] Network Stats,0,15,lo,37794,434,0,0,0,0,0,0,37794,434,0,0,0,0,0,0
[PI-INFO] Paramount Iteration,7,16,57.607688,2.993293
[RU-INFO] Resources Stats,7,16,32.450708,24.617641,930388,0,0,0,3613,2,0,280,0,0,0,0,2166,3572
[NT-INFO] Network Stats,7,16,ens4,35530642323,1543925,0,0,0,0,0,0,35164164543,1329495,0,0,0,0,0,0
[NT-INFO] Network Stats,7,16,lo,38591,457,0,0,0,0,0,0,38591,457,0,0,0,0,0,0
[PI-INFO] Paramount Iteration,5,16,57.667706,3.114363
[RU-INFO] Resources Stats,5,16,32.223305,24.970162,930100,0,0,0,3601,2,0,280,0,0,0,0,2146,3460
[NT-INFO] Network Stats,5,16,ens4,44163787969,1851312,0,0,0,0,0,0,43636110523,1716206,0,0,0,0,0,0
[NT-INFO] Network Stats,5,16,lo,39502,473,0,0,0,0,0,0,39502,473,0,0,0,0,0,0
[PI-INFO] Paramount Iteration,6,16,57.693151,3.078624
[RU-INFO] Resources Stats,6,16,34.451988,22.760137,930064,0,0,0,3588,2,0,280,0,0,0,0,2174,3643
[NT-INFO] Network Stats,6,16,ens4,35388220680,1530273,0,0,0,0,0,0,35175185741,1305743,0,0,0,0,0,0
[NT-INFO] Network Stats,6,16,lo,38798,459,0,0,0,0,0,0,38798,459,0,0,0,0,0,0
[PI-INFO] Paramount Iteration,4,16,57.696978,3.081906
[RU-INFO] Resources Stats,4,16,33.810401,23.425349,930116,0,0,0,3598,2,0,280,0,0,0,0,2165,3467
[NT-INFO] Network Stats,4,16,lo,39005,461,0,0,0,0,0,0,39005,461,0,0,0,0,0,0
[NT-INFO] Network Stats,4,16,ens4,44082027717,1964511,0,0,0,0,0,0,43641993726,1620919,0,0,0,0,0,0
[PI-INFO] Paramount Iteration,1,16,57.704643,3.082733
[RU-INFO] Resources Stats,1,16,34.384954,22.841976,930252,0,0,0,3621,2,0,280,0,0,0,0,2090,3702
[NT-INFO] Network Stats,1,16,ens4,37232666478,1724294,0,0,0,0,0,0,36943355209,1326633,0,0,0,0,0,0
[NT-INFO] Network Stats,1,16,lo,40841,481,0,0,0,0,0,0,40841,481,0,0,0,0,0,0
 T =   16     Checksum =    5.130528295923D+02    5.123304037599D+02
[PI-INFO] Paramount Iteration,0,16,57.748601,3.113560
[PI-INFO] Paramount Iteration,3,16,57.745422,3.113551
[RU-INFO] Resources Stats,3,16,35.415725,21.854893,930044,0,0,0,3615,2,0,280,0,0,0,0,2080,3494
[PI-INFO] Paramount Iteration,2,16,57.748435,3.113550
[NT-INFO] Network Stats,3,16,ens4,45634923961,1965309,0,0,0,0,0,0,45450651171,1680944,0,0,0,0,0,0
[RU-INFO] Resources Stats,2,16,32.309858,24.968162,930068,0,0,0,3590,2,0,280,0,0,0,0,2223,3782
[NT-INFO] Network Stats,2,16,ens4,45982494132,2050265,0,0,0,0,0,0,45408456638,1699825,0,0,0,0,0,0
[NT-INFO] Network Stats,3,16,lo,39822,470,0,0,0,0,0,0,39822,470,0,0,0,0,0,0
[NT-INFO] Network Stats,2,16,lo,39848,467,0,0,0,0,0,0,39848,467,0,0,0,0,0,0
[RU-INFO] Resources Stats,0,16,32.232525,25.003098,930348,0,0,0,3622,3,0,288,8,0,0,0,2171,4367
[NT-INFO] Network Stats,0,16,ens4,37327070805,1769457,0,0,0,0,0,0,38463670301,1668534,0,0,0,0,0,0
[NT-INFO] Network Stats,0,16,lo,37794,434,0,0,0,0,0,0,37794,434,0,0,0,0,0,0
[PI-INFO] Paramount Iteration,7,17,60.793363,3.185675
[RU-INFO] Resources Stats,7,17,34.195353,26.050939,930388,0,0,0,3613,2,0,280,0,0,0,0,2166,3755
[NT-INFO] Network Stats,7,17,ens4,35766286899,1555477,0,0,0,0,0,0,35399688500,1339145,0,0,0,0,0,0
[NT-INFO] Network Stats,7,17,lo,38591,457,0,0,0,0,0,0,38591,457,0,0,0,0,0,0
[PI-INFO] Paramount Iteration,5,17,60.858852,3.191146
[RU-INFO] Resources Stats,5,17,34.006710,26.373693,930100,0,0,0,3601,2,0,280,0,0,0,0,2146,3654
[NT-INFO] Network Stats,5,17,ens4,44399430301,1862830,0,0,0,0,0,0,43871587454,1725205,0,0,0,0,0,0
[NT-INFO] Network Stats,5,17,lo,39502,473,0,0,0,0,0,0,39502,473,0,0,0,0,0,0
[PI-INFO] Paramount Iteration,1,17,60.877726,3.173083
[RU-INFO] Resources Stats,1,17,36.279290,24.116869,930252,0,0,0,3621,2,0,280,0,0,0,0,2090,3890
[NT-INFO] Network Stats,1,17,ens4,37468340622,1736294,0,0,0,0,0,0,37178882548,1336398,0,0,0,0,0,0
[NT-INFO] Network Stats,1,17,lo,40841,481,0,0,0,0,0,0,40841,481,0,0,0,0,0,0
[PI-INFO] Paramount Iteration,6,17,60.880133,3.186982
[RU-INFO] Resources Stats,6,17,36.371328,24.023704,930064,0,0,0,3588,2,0,280,0,0,0,0,2174,3843
[NT-INFO] Network Stats,6,17,ens4,35623869072,1541880,0,0,0,0,0,0,35410837702,1315239,0,0,0,0,0,0
[NT-INFO] Network Stats,6,17,lo,38798,459,0,0,0,0,0,0,38798,459,0,0,0,0,0,0
[PI-INFO] Paramount Iteration,4,17,60.887517,3.190539
[RU-INFO] Resources Stats,4,17,35.653616,24.768786,930116,0,0,0,3598,2,0,280,0,0,0,0,2165,3662
[NT-INFO] Network Stats,4,17,lo,39005,461,0,0,0,0,0,0,39005,461,0,0,0,0,0,0
[NT-INFO] Network Stats,4,17,ens4,44317687879,1976298,0,0,0,0,0,0,43877491101,1630230,0,0,0,0,0,0
[PI-INFO] Paramount Iteration,3,17,60.901169,3.155747
[RU-INFO] Resources Stats,3,17,37.324323,23.096774,930044,0,0,0,3615,2,0,280,0,0,0,0,2080,3689
 T =   17     Checksum =    5.130310107773D+02    5.123356167976D+02
[NT-INFO] Network Stats,3,17,ens4,45870581269,1977051,0,0,0,0,0,0,45686547078,1690341,0,0,0,0,0,0
[PI-INFO] Paramount Iteration,2,17,60.904218,3.155783
[NT-INFO] Network Stats,3,17,lo,39822,470,0,0,0,0,0,0,39822,470,0,0,0,0,0,0
[RU-INFO] Resources Stats,2,17,34.070027,26.360284,930068,0,0,0,3590,2,0,280,0,0,0,0,2223,3975
[NT-INFO] Network Stats,2,17,ens4,46218181088,2062458,0,0,0,0,0,0,45643991523,1709491,0,0,0,0,0,0
[NT-INFO] Network Stats,2,17,lo,39848,467,0,0,0,0,0,0,39848,467,0,0,0,0,0,0
[PI-INFO] Paramount Iteration,0,17,60.904587,3.155986
[RU-INFO] Resources Stats,0,17,34.049793,26.337011,930348,0,0,0,3625,3,0,288,8,0,0,0,2171,4573
[NT-INFO] Network Stats,0,17,ens4,37562741694,1781315,0,0,0,0,0,0,38699181065,1678058,0,0,0,0,0,0
[NT-INFO] Network Stats,0,17,lo,37794,434,0,0,0,0,0,0,37794,434,0,0,0,0,0,0
[PI-INFO] Paramount Iteration,7,18,63.911575,3.118212
[RU-INFO] Resources Stats,7,18,35.922576,27.435198,930388,0,0,0,3613,2,0,280,0,0,0,0,2166,3944
[NT-INFO] Network Stats,7,18,ens4,36001933455,1567059,0,0,0,0,0,0,35635186915,1348408,0,0,0,0,0,0
[NT-INFO] Network Stats,7,18,lo,38591,457,0,0,0,0,0,0,38591,457,0,0,0,0,0,0
[PI-INFO] Paramount Iteration,1,18,63.916643,3.038917
[RU-INFO] Resources Stats,1,18,38.154723,25.276504,930252,0,0,0,3622,2,0,280,0,0,0,0,2090,4078
[NT-INFO] Network Stats,1,18,ens4,37703971710,1747642,0,0,0,0,0,0,37414357789,1345374,0,0,0,0,0,0
[NT-INFO] Network Stats,1,18,lo,40841,481,0,0,0,0,0,0,40841,481,0,0,0,0,0,0
[PI-INFO] Paramount Iteration,5,18,63.952566,3.093714
[RU-INFO] Resources Stats,5,18,35.729458,27.740709,930100,0,0,0,3601,2,0,280,0,0,0,0,2146,3840
[NT-INFO] Network Stats,5,18,ens4,44635086955,1874565,0,0,0,0,0,0,44107059221,1734128,0,0,0,0,0,0
[NT-INFO] Network Stats,5,18,lo,39502,473,0,0,0,0,0,0,39502,473,0,0,0,0,0,0
[PI-INFO] Paramount Iteration,6,18,63.984015,3.103882
[RU-INFO] Resources Stats,6,18,38.264850,25.230098,930064,0,0,0,3588,2,0,280,0,0,0,0,2174,4025
[NT-INFO] Network Stats,6,18,ens4,35859497780,1553191,0,0,0,0,0,0,35646328783,1324451,0,0,0,0,0,0
[NT-INFO] Network Stats,6,18,lo,38798,459,0,0,0,0,0,0,38798,459,0,0,0,0,0,0
[PI-INFO] Paramount Iteration,4,18,64.010243,3.122726
[RU-INFO] Resources Stats,4,18,37.433208,26.108473,930116,0,0,0,3599,2,0,280,0,0,0,0,2165,3844
[NT-INFO] Network Stats,4,18,lo,39005,461,0,0,0,0,0,0,39005,461,0,0,0,0,0,0
[NT-INFO] Network Stats,4,18,ens4,44553354047,1988176,0,0,0,0,0,0,44112999366,1639706,0,0,0,0,0,0
 T =   18     Checksum =    5.130103090133D+02    5.123399592211D+02
[PI-INFO] Paramount Iteration,2,18,64.057612,3.153394
[PI-INFO] Paramount Iteration,3,18,64.054605,3.153436
[RU-INFO] Resources Stats,2,18,35.879263,27.701255,930068,0,0,0,3590,2,0,280,0,0,0,0,2223,4154
[RU-INFO] Resources Stats,3,18,39.239209,24.330549,930044,0,0,0,3615,2,0,280,0,0,0,0,2080,3870
[NT-INFO] Network Stats,2,18,ens4,46453828012,2074045,0,0,0,0,0,0,45879530544,1719433,0,0,0,0,0,0
[NT-INFO] Network Stats,3,18,ens4,46106214667,1988430,0,0,0,0,0,0,45922105437,1699360,0,0,0,0,0,0
[NT-INFO] Network Stats,2,18,lo,39848,467,0,0,0,0,0,0,39848,467,0,0,0,0,0,0
[NT-INFO] Network Stats,3,18,lo,39822,470,0,0,0,0,0,0,39822,470,0,0,0,0,0,0
[PI-INFO] Paramount Iteration,0,18,64.057833,3.153246
[RU-INFO] Resources Stats,0,18,35.778780,27.756847,930348,0,0,0,3628,3,0,288,8,0,0,0,2171,4777
[NT-INFO] Network Stats,0,18,ens4,37798371569,1792592,0,0,0,0,0,0,38934687173,1687512,0,0,0,0,0,0
[NT-INFO] Network Stats,0,18,lo,37794,434,0,0,0,0,0,0,37794,434,0,0,0,0,0,0
[PI-INFO] Paramount Iteration,7,19,67.266709,3.355134
[RU-INFO] Resources Stats,7,19,37.720759,28.985551,930388,0,0,0,3613,2,0,280,0,0,0,0,2166,4137
[NT-INFO] Network Stats,7,19,ens4,36237594633,1578862,0,0,0,0,0,0,35870707858,1357863,0,0,0,0,0,0
[NT-INFO] Network Stats,7,19,lo,38591,457,0,0,0,0,0,0,38591,457,0,0,0,0,0,0
[PI-INFO] Paramount Iteration,1,19,67.303865,3.387222
[RU-INFO] Resources Stats,1,19,40.050638,26.757745,930252,0,0,0,3622,2,0,280,0,0,0,0,2090,4515
[NT-INFO] Network Stats,1,19,ens4,37939624848,1759273,0,0,0,0,0,0,37649844863,1354521,0,0,0,0,0,0
[NT-INFO] Network Stats,1,19,lo,40841,481,0,0,0,0,0,0,40841,481,0,0,0,0,0,0
[PI-INFO] Paramount Iteration,3,19,67.312732,3.258127
[PI-INFO] Paramount Iteration,2,19,67.315828,3.258216
[RU-INFO] Resources Stats,3,19,41.249828,25.573693,930044,0,0,0,3616,2,0,280,0,0,0,0,2080,4058
[RU-INFO] Resources Stats,2,19,37.662531,29.172666,930068,0,0,0,3591,2,0,280,0,0,0,0,2223,4359
[NT-INFO] Network Stats,3,19,ens4,46341872377,2000181,0,0,0,0,0,0,46157598720,1708609,0,0,0,0,0,0
[NT-INFO] Network Stats,3,19,lo,39822,470,0,0,0,0,0,0,39822,470,0,0,0,0,0,0
[NT-INFO] Network Stats,2,19,ens4,46689495462,2085943,0,0,0,0,0,0,46115090751,1729696,0,0,0,0,0,0
[NT-INFO] Network Stats,2,19,lo,39848,467,0,0,0,0,0,0,39848,467,0,0,0,0,0,0
[PI-INFO] Paramount Iteration,5,19,67.326348,3.373782
[RU-INFO] Resources Stats,5,19,37.510469,29.329420,930100,0,0,0,3602,2,0,280,0,0,0,0,2146,4029
[NT-INFO] Network Stats,5,19,ens4,44870750737,1886396,0,0,0,0,0,0,44343551876,1743479,0,0,0,0,0,0
[NT-INFO] Network Stats,5,19,lo,39502,473,0,0,0,0,0,0,39502,473,0,0,0,0,0,0
 T =   19     Checksum =    5.129905029333D+02    5.123435588985D+02
[PI-INFO] Paramount Iteration,6,19,67.358475,3.374460
[RU-INFO] Resources Stats,6,19,40.233406,26.631749,930064,0,0,0,3588,2,0,280,0,0,0,0,2174,4219
[PI-INFO] Paramount Iteration,4,19,67.359013,3.348770
[NT-INFO] Network Stats,6,19,ens4,36095149036,1564844,0,0,0,0,0,0,35881829698,1333816,0,0,0,0,0,0
[RU-INFO] Resources Stats,4,19,39.443618,27.443385,930116,0,0,0,3599,2,0,280,0,0,0,0,2165,4036
[NT-INFO] Network Stats,4,19,lo,39005,461,0,0,0,0,0,0,39005,461,0,0,0,0,0,0
[NT-INFO] Network Stats,6,19,lo,38798,459,0,0,0,0,0,0,38798,459,0,0,0,0,0,0
[NT-INFO] Network Stats,4,19,ens4,44789033085,2000249,0,0,0,0,0,0,44348497863,1649034,0,0,0,0,0,0
[PI-INFO] Paramount Iteration,0,19,67.359308,3.301475
[RU-INFO] Resources Stats,0,19,37.540542,29.287940,930348,0,0,0,3629,3,0,288,8,0,0,0,2171,5058
[NT-INFO] Network Stats,0,19,ens4,38034863344,1804365,0,0,0,0,0,0,39170221367,1697379,0,0,0,0,0,0
[NT-INFO] Network Stats,0,19,lo,37794,434,0,0,0,0,0,0,37794,434,0,0,0,0,0,0
[PI-INFO] Paramount Iteration,5,20,70.398729,3.072381
[RU-INFO] Resources Stats,5,20,39.248434,30.659840,930100,0,0,0,3602,2,0,280,0,0,0,0,2146,4223
[NT-INFO] Network Stats,5,20,ens4,45106390099,1897869,0,0,0,0,0,0,44579054531,1752870,0,0,0,0,0,0
[NT-INFO] Network Stats,5,20,lo,39502,473,0,0,0,0,0,0,39502,473,0,0,0,0,0,0
[PI-INFO] PI avg,5,3.139335,20
[PI-INFO] Beta,5,1.121242
[PI-INFO] Paramount Iteration,7,20,70.428357,3.161648
[RU-INFO] Resources Stats,7,20,39.438065,30.423307,930388,0,0,0,3614,2,0,280,0,0,0,0,2166,4329
[PI-INFO] Paramount Iteration,6,20,70.428481,3.070006
[NT-INFO] Network Stats,7,20,ens4,36473235579,1590359,0,0,0,0,0,0,36106213467,1367235,0,0,0,0,0,0
[NT-INFO] Network Stats,7,20,lo,38591,457,0,0,0,0,0,0,38591,457,0,0,0,0,0,0
[RU-INFO] Resources Stats,6,20,42.077188,27.854251,930064,0,0,0,3589,2,0,280,0,0,0,0,2174,4397
[PI-INFO] PI avg,7,3.140146,20
[PI-INFO] Beta,7,1.121424
[NT-INFO] Network Stats,6,20,ens4,36330737484,1575545,0,0,0,0,0,0,36117315721,1342955,0,0,0,0,0,0
[PI-INFO] Paramount Iteration,4,20,70.429067,3.070054
[NT-INFO] Network Stats,6,20,lo,38798,459,0,0,0,0,0,0,38798,459,0,0,0,0,0,0
[RU-INFO] Resources Stats,4,20,41.294766,28.658816,930116,0,0,0,3599,2,0,280,0,0,0,0,2165,4225
[PI-INFO] PI avg,6,3.140467,20
[NT-INFO] Network Stats,4,20,lo,39005,461,0,0,0,0,0,0,39005,461,0,0,0,0,0,0
[NT-INFO] Network Stats,4,20,ens4,45024689221,2011975,0,0,0,0,0,0,44583993258,1658315,0,0,0,0,0,0
[PI-INFO] Beta,6,1.121313
[PI-INFO] PI avg,4,3.141981,20
[PI-INFO] Beta,4,1.120782
[PI-INFO] Paramount Iteration,1,20,70.432880,3.129015
[RU-INFO] Resources Stats,1,20,41.958421,27.974946,930252,0,0,0,3622,2,0,280,0,0,0,0,2090,4706
[NT-INFO] Network Stats,1,20,ens4,38175279258,1770974,0,0,0,0,0,0,37885323758,1363552,0,0,0,0,0,0
[NT-INFO] Network Stats,1,20,lo,40841,481,0,0,0,0,0,0,40841,481,0,0,0,0,0,0
[PI-INFO] PI avg,1,3.142264,20
[PI-INFO] Beta,1,1.120742
 T =   20     Checksum =    5.129714421109D+02    5.123465164008D+02
[PI-INFO] Paramount Iteration,3,20,70.450495,3.137763
[RU-INFO] Resources Stats,3,20,43.166705,26.790231,930044,0,0,0,3616,2,0,280,0,0,0,0,2080,4250
[NT-INFO] Network Stats,3,20,ens4,46577535697,2012017,0,0,0,0,0,0,46393111605,1718155,0,0,0,0,0,0
[PI-INFO] Paramount Iteration,2,20,70.453569,3.137741
[RU-INFO] Resources Stats,2,20,39.371366,30.598181,930068,0,0,0,3591,2,0,280,0,0,0,0,2223,4549
[NT-INFO] Network Stats,3,20,lo,39822,470,0,0,0,0,0,0,39822,470,0,0,0,0,0,0
[NT-INFO] Network Stats,2,20,ens4,46925176706,2098050,0,0,0,0,0,0,46350627264,1739600,0,0,0,0,0,0
[PI-INFO] PI avg,3,3.142709,20
[NT-INFO] Network Stats,2,20,lo,39848,467,0,0,0,0,0,0,39848,467,0,0,0,0,0,0
[PI-INFO] Beta,3,1.120864
[PI-INFO] PI avg,2,3.144809,20
[PI-INFO] Beta,2,1.120162
[PI-INFO] Paramount Iteration,0,20,70.453868,3.094560
[RU-INFO] Resources Stats,0,20,39.272871,30.644195,930348,0,0,0,3629,3,0,288,8,0,0,0,2171,5282
[NT-INFO] Network Stats,0,20,ens4,38270537198,1816255,0,0,0,0,0,0,39405720899,1706733,0,0,0,0,0,0
[NT-INFO] Network Stats,0,20,lo,37794,434,0,0,0,0,0,0,37794,434,0,0,0,0,0,0
 Result verification successful


 FT Benchmark Completed.
 Class           =                        C
 Size            =            512x 512x 512
 Iterations      =                       20
 Time in seconds =                    66.27
 Total processes =                        8
 Active procs    =                        8
 Mop/s total     =                  5981.85
 Mop/s/process   =                   747.73
 Operation type  =           floating point
 Verification    =               SUCCESSFUL
 Version         =                      3.4
 Compile date    =              25 May 2021

 Compile options:
    MPIFC        = mpif90
    FLINK        = $(MPIFC)
    FMPI_LIB     = (none)
    FMPI_INC     = (none)
    FFLAGS       = -O3
    FLINKFLAGS   = $(FFLAGS) -O ../../utils/obj/*.o
    RAND         = randi8


 Please send feedbacks and/or the results of this run to:

 NPB Development Team 
 Internet: npb@nas.nasa.gov


[PI-INFO] PI avg,0,3.142041,20
[PI-INFO] Beta,0,1.121166
[PI-INFO] Total time,70.454989
