

 NAS Parallel Benchmarks 3.4 -- SP Benchmark

 No input file inputsp.data. Using compiled defaults
 Size:  408x 408x 408  (class D)
 Iterations:  500    dt:   0.0003000
 WARNING: Number of active processes:     4
 Total number of processes:     8

3 total processes killed (some possibly by mpirun during cleanup)
