--------------------------------------------------------------------------
MPI_ABORT was invoked on rank 0 in communicator MPI_COMM_WORLD
with errorcode 16.

NOTE: invoking MPI_ABORT causes Open MPI to kill all MPI processes.
You may or may not see output from other processes, depending on
exactly when Open MPI kills them.
--------------------------------------------------------------------------
[instance-0:11968] PMIX ERROR: UNREACHABLE in file ../../../src/server/pmix_server.c at line 2079
[instance-5:10229] PMIX ERROR: UNREACHABLE in file ../../../src/server/pmix_server.c at line 2079
[instance-7:10239] PMIX ERROR: UNREACHABLE in file ../../../src/server/pmix_server.c at line 2079
[instance-2:10233] PMIX ERROR: UNREACHABLE in file ../../../src/server/pmix_server.c at line 2079
[instance-1:10252] PMIX ERROR: UNREACHABLE in file ../../../src/server/pmix_server.c at line 2079
[instance-6:10232] PMIX ERROR: UNREACHABLE in file ../../../src/server/pmix_server.c at line 2079
[instance-3:10239] PMIX ERROR: UNREACHABLE in file ../../../src/server/pmix_server.c at line 2079
[instance-0:11968] 7 more processes have sent help message help-mpi-api.txt / mpi-abort
[instance-0:11968] Set MCA parameter "orte_base_help_aggregate" to 0 to see all help / error messages
