Warning: Permanently added '10.128.15.216' (ECDSA) to the list of known hosts.
Warning: Permanently added '10.128.15.213' (ECDSA) to the list of known hosts.
Warning: Permanently added '10.128.15.215' (ECDSA) to the list of known hosts.
Warning: Permanently added '10.128.15.217' (ECDSA) to the list of known hosts.
